%YAML 1.1
%TAG !u! tag:unity3d.com,2011:
--- !u!74 &7400000
AnimationClip:
  m_ObjectHideFlags: 0
  m_CorrespondingSourceObject: {fileID: 0}
  m_PrefabInternal: {fileID: 0}
  m_Name: Idle_6_animation
  serializedVersion: 6
  m_Legacy: 0
  m_Compressed: 0
  m_UseHighQualityCurve: 1
  m_RotationCurves: []
  m_CompressedRotationCurves: []
  m_EulerCurves: []
  m_PositionCurves: []
  m_ScaleCurves: []
  m_FloatCurves: []
  m_PPtrCurves:
  - curve:
    - time: 0
      value: {fileID: 21300000, guid: 058aa43d80eb7a343bbae17e13ed4a0e, type: 3}
    - time: 0.03979592
      value: {fileID: 21300002, guid: 058aa43d80eb7a343bbae17e13ed4a0e, type: 3}
    - time: 0.07959184
      value: {fileID: 21300004, guid: 058aa43d80eb7a343bbae17e13ed4a0e, type: 3}
    - time: 0.11938776
      value: {fileID: 21300006, guid: 058aa43d80eb7a343bbae17e13ed4a0e, type: 3}
    - time: 0.15918368
      value: {fileID: 21300008, guid: 058aa43d80eb7a343bbae17e13ed4a0e, type: 3}
    - time: 0.1989796
      value: {fileID: 21300010, guid: 058aa43d80eb7a343bbae17e13ed4a0e, type: 3}
    - time: 0.23877552
      value: {fileID: 21300012, guid: 058aa43d80eb7a343bbae17e13ed4a0e, type: 3}
    - time: 0.27857143
      value: {fileID: 21300014, guid: 058aa43d80eb7a343bbae17e13ed4a0e, type: 3}
    - time: 0.31836736
      value: {fileID: 21300016, guid: 058aa43d80eb7a343bbae17e13ed4a0e, type: 3}
    - time: 0.3581633
      value: {fileID: 21300018, guid: 058aa43d80eb7a343bbae17e13ed4a0e, type: 3}
    - time: 0.3979592
      value: {fileID: 21300020, guid: 058aa43d80eb7a343bbae17e13ed4a0e, type: 3}
    - time: 0.4377551
      value: {fileID: 21300022, guid: 058aa43d80eb7a343bbae17e13ed4a0e, type: 3}
    - time: 0.47755104
      value: {fileID: 21300024, guid: 058aa43d80eb7a343bbae17e13ed4a0e, type: 3}
    - time: 0.517347
      value: {fileID: 21300026, guid: 058aa43d80eb7a343bbae17e13ed4a0e, type: 3}
    - time: 0.55714285
      value: {fileID: 21300028, guid: 058aa43d80eb7a343bbae17e13ed4a0e, type: 3}
    - time: 0.5969388
      value: {fileID: 21300030, guid: 058aa43d80eb7a343bbae17e13ed4a0e, type: 3}
    - time: 0.6367347
      value: {fileID: 21300032, guid: 058aa43d80eb7a343bbae17e13ed4a0e, type: 3}
    - time: 0.67653066
      value: {fileID: 21300034, guid: 058aa43d80eb7a343bbae17e13ed4a0e, type: 3}
    - time: 0.7163266
      value: {fileID: 21300036, guid: 058aa43d80eb7a343bbae17e13ed4a0e, type: 3}
    - time: 0.75612247
      value: {fileID: 21300038, guid: 058aa43d80eb7a343bbae17e13ed4a0e, type: 3}
    - time: 0.7959184
      value: {fileID: 21300040, guid: 058aa43d80eb7a343bbae17e13ed4a0e, type: 3}
    - time: 0.83571434
      value: {fileID: 21300042, guid: 058aa43d80eb7a343bbae17e13ed4a0e, type: 3}
    - time: 0.8755102
      value: {fileID: 21300044, guid: 058aa43d80eb7a343bbae17e13ed4a0e, type: 3}
    - time: 0.91530615
      value: {fileID: 21300046, guid: 058aa43d80eb7a343bbae17e13ed4a0e, type: 3}
    - time: 0.9551021
      value: {fileID: 21300048, guid: 058aa43d80eb7a343bbae17e13ed4a0e, type: 3}
    - time: 0.994898
      value: {fileID: 21300050, guid: 058aa43d80eb7a343bbae17e13ed4a0e, type: 3}
    - time: 1.034694
      value: {fileID: 21300052, guid: 058aa43d80eb7a343bbae17e13ed4a0e, type: 3}
    - time: 1.0744898
      value: {fileID: 21300054, guid: 058aa43d80eb7a343bbae17e13ed4a0e, type: 3}
    - time: 1.1142857
      value: {fileID: 21300056, guid: 058aa43d80eb7a343bbae17e13ed4a0e, type: 3}
    - time: 1.1540817
      value: {fileID: 21300058, guid: 058aa43d80eb7a343bbae17e13ed4a0e, type: 3}
    - time: 1.1938776
      value: {fileID: 21300060, guid: 058aa43d80eb7a343bbae17e13ed4a0e, type: 3}
    - time: 1.2336736
      value: {fileID: 21300062, guid: 058aa43d80eb7a343bbae17e13ed4a0e, type: 3}
    - time: 1.2734694
      value: {fileID: 21300064, guid: 058aa43d80eb7a343bbae17e13ed4a0e, type: 3}
    - time: 1.3132653
      value: {fileID: 21300066, guid: 058aa43d80eb7a343bbae17e13ed4a0e, type: 3}
    - time: 1.3530613
      value: {fileID: 21300068, guid: 058aa43d80eb7a343bbae17e13ed4a0e, type: 3}
    - time: 1.3928572
      value: {fileID: 21300070, guid: 058aa43d80eb7a343bbae17e13ed4a0e, type: 3}
    - time: 1.4326532
      value: {fileID: 21300072, guid: 058aa43d80eb7a343bbae17e13ed4a0e, type: 3}
    - time: 1.4724491
      value: {fileID: 21300074, guid: 058aa43d80eb7a343bbae17e13ed4a0e, type: 3}
    - time: 1.5122449
      value: {fileID: 21300076, guid: 058aa43d80eb7a343bbae17e13ed4a0e, type: 3}
    - time: 1.5520409
      value: {fileID: 21300078, guid: 058aa43d80eb7a343bbae17e13ed4a0e, type: 3}
    - time: 1.5918368
      value: {fileID: 21300080, guid: 058aa43d80eb7a343bbae17e13ed4a0e, type: 3}
    - time: 1.6316327
      value: {fileID: 21300082, guid: 058aa43d80eb7a343bbae17e13ed4a0e, type: 3}
    - time: 1.6714287
      value: {fileID: 21300084, guid: 058aa43d80eb7a343bbae17e13ed4a0e, type: 3}
    - time: 1.7112246
      value: {fileID: 21300086, guid: 058aa43d80eb7a343bbae17e13ed4a0e, type: 3}
    - time: 1.7510204
      value: {fileID: 21300088, guid: 058aa43d80eb7a343bbae17e13ed4a0e, type: 3}
    - time: 1.7908164
      value: {fileID: 21300090, guid: 058aa43d80eb7a343bbae17e13ed4a0e, type: 3}
    - time: 1.8306123
      value: {fileID: 21300092, guid: 058aa43d80eb7a343bbae17e13ed4a0e, type: 3}
    - time: 1.8704083
      value: {fileID: 21300094, guid: 058aa43d80eb7a343bbae17e13ed4a0e, type: 3}
    - time: 1.9102042
      value: {fileID: 21300096, guid: 058aa43d80eb7a343bbae17e13ed4a0e, type: 3}
    attribute: m_Sprite
    path: 
    classID: 212
    script: {fileID: 0}
  m_SampleRate: 25
  m_WrapMode: 0
  m_Bounds:
    m_Center: {x: 0, y: 0, z: 0}
    m_Extent: {x: 0, y: 0, z: 0}
  m_ClipBindingConstant:
    genericBindings:
    - serializedVersion: 2
      path: 0
      attribute: 0
      script: {fileID: 0}
      typeID: 212
      customType: 23
      isPPtrCurve: 1
    pptrCurveMapping:
    - {fileID: 21300000, guid: 058aa43d80eb7a343bbae17e13ed4a0e, type: 3}
    - {fileID: 21300002, guid: 058aa43d80eb7a343bbae17e13ed4a0e, type: 3}
    - {fileID: 21300004, guid: 058aa43d80eb7a343bbae17e13ed4a0e, type: 3}
    - {fileID: 21300006, guid: 058aa43d80eb7a343bbae17e13ed4a0e, type: 3}
    - {fileID: 21300008, guid: 058aa43d80eb7a343bbae17e13ed4a0e, type: 3}
    - {fileID: 21300010, guid: 058aa43d80eb7a343bbae17e13ed4a0e, type: 3}
    - {fileID: 21300012, guid: 058aa43d80eb7a343bbae17e13ed4a0e, type: 3}
    - {fileID: 21300014, guid: 058aa43d80eb7a343bbae17e13ed4a0e, type: 3}
    - {fileID: 21300016, guid: 058aa43d80eb7a343bbae17e13ed4a0e, type: 3}
    - {fileID: 21300018, guid: 058aa43d80eb7a343bbae17e13ed4a0e, type: 3}
    - {fileID: 21300020, guid: 058aa43d80eb7a343bbae17e13ed4a0e, type: 3}
    - {fileID: 21300022, guid: 058aa43d80eb7a343bbae17e13ed4a0e, type: 3}
    - {fileID: 21300024, guid: 058aa43d80eb7a343bbae17e13ed4a0e, type: 3}
    - {fileID: 21300026, guid: 058aa43d80eb7a343bbae17e13ed4a0e, type: 3}
    - {fileID: 21300028, guid: 058aa43d80eb7a343bbae17e13ed4a0e, type: 3}
    - {fileID: 21300030, guid: 058aa43d80eb7a343bbae17e13ed4a0e, type: 3}
    - {fileID: 21300032, guid: 058aa43d80eb7a343bbae17e13ed4a0e, type: 3}
    - {fileID: 21300034, guid: 058aa43d80eb7a343bbae17e13ed4a0e, type: 3}
    - {fileID: 21300036, guid: 058aa43d80eb7a343bbae17e13ed4a0e, type: 3}
    - {fileID: 21300038, guid: 058aa43d80eb7a343bbae17e13ed4a0e, type: 3}
    - {fileID: 21300040, guid: 058aa43d80eb7a343bbae17e13ed4a0e, type: 3}
    - {fileID: 21300042, guid: 058aa43d80eb7a343bbae17e13ed4a0e, type: 3}
    - {fileID: 21300044, guid: 058aa43d80eb7a343bbae17e13ed4a0e, type: 3}
    - {fileID: 21300046, guid: 058aa43d80eb7a343bbae17e13ed4a0e, type: 3}
    - {fileID: 21300048, guid: 058aa43d80eb7a343bbae17e13ed4a0e, type: 3}
    - {fileID: 21300050, guid: 058aa43d80eb7a343bbae17e13ed4a0e, type: 3}
    - {fileID: 21300052, guid: 058aa43d80eb7a343bbae17e13ed4a0e, type: 3}
    - {fileID: 21300054, guid: 058aa43d80eb7a343bbae17e13ed4a0e, type: 3}
    - {fileID: 21300056, guid: 058aa43d80eb7a343bbae17e13ed4a0e, type: 3}
    - {fileID: 21300058, guid: 058aa43d80eb7a343bbae17e13ed4a0e, type: 3}
    - {fileID: 21300060, guid: 058aa43d80eb7a343bbae17e13ed4a0e, type: 3}
    - {fileID: 21300062, guid: 058aa43d80eb7a343bbae17e13ed4a0e, type: 3}
    - {fileID: 21300064, guid: 058aa43d80eb7a343bbae17e13ed4a0e, type: 3}
    - {fileID: 21300066, guid: 058aa43d80eb7a343bbae17e13ed4a0e, type: 3}
    - {fileID: 21300068, guid: 058aa43d80eb7a343bbae17e13ed4a0e, type: 3}
    - {fileID: 21300070, guid: 058aa43d80eb7a343bbae17e13ed4a0e, type: 3}
    - {fileID: 21300072, guid: 058aa43d80eb7a343bbae17e13ed4a0e, type: 3}
    - {fileID: 21300074, guid: 058aa43d80eb7a343bbae17e13ed4a0e, type: 3}
    - {fileID: 21300076, guid: 058aa43d80eb7a343bbae17e13ed4a0e, type: 3}
    - {fileID: 21300078, guid: 058aa43d80eb7a343bbae17e13ed4a0e, type: 3}
    - {fileID: 21300080, guid: 058aa43d80eb7a343bbae17e13ed4a0e, type: 3}
    - {fileID: 21300082, guid: 058aa43d80eb7a343bbae17e13ed4a0e, type: 3}
    - {fileID: 21300084, guid: 058aa43d80eb7a343bbae17e13ed4a0e, type: 3}
    - {fileID: 21300086, guid: 058aa43d80eb7a343bbae17e13ed4a0e, type: 3}
    - {fileID: 21300088, guid: 058aa43d80eb7a343bbae17e13ed4a0e, type: 3}
    - {fileID: 21300090, guid: 058aa43d80eb7a343bbae17e13ed4a0e, type: 3}
    - {fileID: 21300092, guid: 058aa43d80eb7a343bbae17e13ed4a0e, type: 3}
    - {fileID: 21300094, guid: 058aa43d80eb7a343bbae17e13ed4a0e, type: 3}
    - {fileID: 21300096, guid: 058aa43d80eb7a343bbae17e13ed4a0e, type: 3}
  m_AnimationClipSettings:
    serializedVersion: 2
    m_AdditiveReferencePoseClip: {fileID: 0}
    m_AdditiveReferencePoseTime: 0
    m_StartTime: 0
    m_StopTime: 1.9502041
    m_OrientationOffsetY: 0
    m_Level: 0
    m_CycleOffset: 0
    m_HasAdditiveReferencePose: 0
    m_LoopTime: 0
    m_LoopBlend: 0
    m_LoopBlendOrientation: 0
    m_LoopBlendPositionY: 0
    m_LoopBlendPositionXZ: 0
    m_KeepOriginalOrientation: 0
    m_KeepOriginalPositionY: 1
    m_KeepOriginalPositionXZ: 0
    m_HeightFromFeet: 0
    m_Mirror: 0
  m_EditorCurves: []
  m_EulerEditorCurves: []
  m_HasGenericRootTransform: 0
  m_HasMotionFloatCurves: 0
  m_GenerateMotionCurves: 0
  m_Events: []
