%YAML 1.1
%TAG !u! tag:unity3d.com,2011:
--- !u!74 &7400000
AnimationClip:
  m_ObjectHideFlags: 0
  m_CorrespondingSourceObject: {fileID: 0}
  m_PrefabInstance: {fileID: 0}
  m_PrefabAsset: {fileID: 0}
  m_Name: InwardSlash_0_animation
  serializedVersion: 6
  m_Legacy: 0
  m_Compressed: 0
  m_UseHighQualityCurve: 1
  m_RotationCurves: []
  m_CompressedRotationCurves: []
  m_EulerCurves: []
  m_PositionCurves: []
  m_ScaleCurves: []
  m_FloatCurves: []
  m_PPtrCurves:
  - curve:
    - time: 0
      value: {fileID: 21300002, guid: b7bd9e13794ef9a49a830141242a13eb, type: 3}
    - time: 0.04489796
      value: {fileID: 21300004, guid: b7bd9e13794ef9a49a830141242a13eb, type: 3}
    - time: 0.08979592
      value: {fileID: 21300006, guid: b7bd9e13794ef9a49a830141242a13eb, type: 3}
    - time: 0.13469388
      value: {fileID: 21300008, guid: b7bd9e13794ef9a49a830141242a13eb, type: 3}
    - time: 0.17959183
      value: {fileID: 21300010, guid: b7bd9e13794ef9a49a830141242a13eb, type: 3}
    - time: 0.2244898
      value: {fileID: 21300012, guid: b7bd9e13794ef9a49a830141242a13eb, type: 3}
    - time: 0.26938775
      value: {fileID: 21300014, guid: b7bd9e13794ef9a49a830141242a13eb, type: 3}
    - time: 0.3142857
      value: {fileID: 21300016, guid: b7bd9e13794ef9a49a830141242a13eb, type: 3}
    - time: 0.35918367
      value: {fileID: 21300018, guid: b7bd9e13794ef9a49a830141242a13eb, type: 3}
    - time: 0.40408164
      value: {fileID: 21300020, guid: b7bd9e13794ef9a49a830141242a13eb, type: 3}
    - time: 0.4489796
      value: {fileID: 21300022, guid: b7bd9e13794ef9a49a830141242a13eb, type: 3}
    - time: 0.49387753
      value: {fileID: 21300024, guid: b7bd9e13794ef9a49a830141242a13eb, type: 3}
    - time: 0.5387755
      value: {fileID: 21300026, guid: b7bd9e13794ef9a49a830141242a13eb, type: 3}
    - time: 0.5836735
      value: {fileID: 21300028, guid: b7bd9e13794ef9a49a830141242a13eb, type: 3}
    - time: 0.6285714
      value: {fileID: 21300030, guid: b7bd9e13794ef9a49a830141242a13eb, type: 3}
    - time: 0.67346936
      value: {fileID: 21300032, guid: b7bd9e13794ef9a49a830141242a13eb, type: 3}
    - time: 0.71836734
      value: {fileID: 21300034, guid: b7bd9e13794ef9a49a830141242a13eb, type: 3}
    - time: 0.7632653
      value: {fileID: 21300036, guid: b7bd9e13794ef9a49a830141242a13eb, type: 3}
    - time: 0.8081633
      value: {fileID: 21300038, guid: b7bd9e13794ef9a49a830141242a13eb, type: 3}
    - time: 0.8530612
      value: {fileID: 21300040, guid: b7bd9e13794ef9a49a830141242a13eb, type: 3}
    - time: 0.8979592
      value: {fileID: 21300042, guid: b7bd9e13794ef9a49a830141242a13eb, type: 3}
    - time: 0.94285715
      value: {fileID: 21300044, guid: b7bd9e13794ef9a49a830141242a13eb, type: 3}
    - time: 0.98775506
      value: {fileID: 21300046, guid: b7bd9e13794ef9a49a830141242a13eb, type: 3}
    - time: 1.0326531
      value: {fileID: 21300048, guid: b7bd9e13794ef9a49a830141242a13eb, type: 3}
    - time: 1.077551
      value: {fileID: 21300050, guid: b7bd9e13794ef9a49a830141242a13eb, type: 3}
    - time: 1.1224489
      value: {fileID: 21300052, guid: b7bd9e13794ef9a49a830141242a13eb, type: 3}
    - time: 1.167347
      value: {fileID: 21300054, guid: b7bd9e13794ef9a49a830141242a13eb, type: 3}
    - time: 1.2122449
      value: {fileID: 21300056, guid: b7bd9e13794ef9a49a830141242a13eb, type: 3}
    - time: 1.2571428
      value: {fileID: 21300058, guid: b7bd9e13794ef9a49a830141242a13eb, type: 3}
    - time: 1.3020408
      value: {fileID: 21300060, guid: b7bd9e13794ef9a49a830141242a13eb, type: 3}
    - time: 1.3469387
      value: {fileID: 21300062, guid: b7bd9e13794ef9a49a830141242a13eb, type: 3}
    - time: 1.3918368
      value: {fileID: 21300064, guid: b7bd9e13794ef9a49a830141242a13eb, type: 3}
    - time: 1.4367347
      value: {fileID: 21300066, guid: b7bd9e13794ef9a49a830141242a13eb, type: 3}
    - time: 1.4816326
      value: {fileID: 21300068, guid: b7bd9e13794ef9a49a830141242a13eb, type: 3}
    - time: 1.5265306
      value: {fileID: 21300070, guid: b7bd9e13794ef9a49a830141242a13eb, type: 3}
    - time: 1.5714285
      value: {fileID: 21300072, guid: b7bd9e13794ef9a49a830141242a13eb, type: 3}
    - time: 1.6163266
      value: {fileID: 21300074, guid: b7bd9e13794ef9a49a830141242a13eb, type: 3}
    - time: 1.6612245
      value: {fileID: 21300076, guid: b7bd9e13794ef9a49a830141242a13eb, type: 3}
    - time: 1.7061224
      value: {fileID: 21300078, guid: b7bd9e13794ef9a49a830141242a13eb, type: 3}
    - time: 1.7510204
      value: {fileID: 21300080, guid: b7bd9e13794ef9a49a830141242a13eb, type: 3}
    - time: 1.7959183
      value: {fileID: 21300082, guid: b7bd9e13794ef9a49a830141242a13eb, type: 3}
    - time: 1.8408163
      value: {fileID: 21300084, guid: b7bd9e13794ef9a49a830141242a13eb, type: 3}
    - time: 1.8857143
      value: {fileID: 21300086, guid: b7bd9e13794ef9a49a830141242a13eb, type: 3}
    - time: 1.9306122
      value: {fileID: 21300088, guid: b7bd9e13794ef9a49a830141242a13eb, type: 3}
    - time: 1.9755101
      value: {fileID: 21300090, guid: b7bd9e13794ef9a49a830141242a13eb, type: 3}
    - time: 2.0204082
      value: {fileID: 21300092, guid: b7bd9e13794ef9a49a830141242a13eb, type: 3}
    - time: 2.0653062
      value: {fileID: 21300094, guid: b7bd9e13794ef9a49a830141242a13eb, type: 3}
    - time: 2.110204
      value: {fileID: 21300096, guid: b7bd9e13794ef9a49a830141242a13eb, type: 3}
    attribute: m_Sprite
    path: 
    classID: 212
    script: {fileID: 0}
  m_SampleRate: 22
  m_WrapMode: 0
  m_Bounds:
    m_Center: {x: 0, y: 0, z: 0}
    m_Extent: {x: 0, y: 0, z: 0}
  m_ClipBindingConstant:
    genericBindings:
    - serializedVersion: 2
      path: 0
      attribute: 0
      script: {fileID: 0}
      typeID: 212
      customType: 23
      isPPtrCurve: 1
    pptrCurveMapping:
    - {fileID: 21300002, guid: b7bd9e13794ef9a49a830141242a13eb, type: 3}
    - {fileID: 21300004, guid: b7bd9e13794ef9a49a830141242a13eb, type: 3}
    - {fileID: 21300006, guid: b7bd9e13794ef9a49a830141242a13eb, type: 3}
    - {fileID: 21300008, guid: b7bd9e13794ef9a49a830141242a13eb, type: 3}
    - {fileID: 21300010, guid: b7bd9e13794ef9a49a830141242a13eb, type: 3}
    - {fileID: 21300012, guid: b7bd9e13794ef9a49a830141242a13eb, type: 3}
    - {fileID: 21300014, guid: b7bd9e13794ef9a49a830141242a13eb, type: 3}
    - {fileID: 21300016, guid: b7bd9e13794ef9a49a830141242a13eb, type: 3}
    - {fileID: 21300018, guid: b7bd9e13794ef9a49a830141242a13eb, type: 3}
    - {fileID: 21300020, guid: b7bd9e13794ef9a49a830141242a13eb, type: 3}
    - {fileID: 21300022, guid: b7bd9e13794ef9a49a830141242a13eb, type: 3}
    - {fileID: 21300024, guid: b7bd9e13794ef9a49a830141242a13eb, type: 3}
    - {fileID: 21300026, guid: b7bd9e13794ef9a49a830141242a13eb, type: 3}
    - {fileID: 21300028, guid: b7bd9e13794ef9a49a830141242a13eb, type: 3}
    - {fileID: 21300030, guid: b7bd9e13794ef9a49a830141242a13eb, type: 3}
    - {fileID: 21300032, guid: b7bd9e13794ef9a49a830141242a13eb, type: 3}
    - {fileID: 21300034, guid: b7bd9e13794ef9a49a830141242a13eb, type: 3}
    - {fileID: 21300036, guid: b7bd9e13794ef9a49a830141242a13eb, type: 3}
    - {fileID: 21300038, guid: b7bd9e13794ef9a49a830141242a13eb, type: 3}
    - {fileID: 21300040, guid: b7bd9e13794ef9a49a830141242a13eb, type: 3}
    - {fileID: 21300042, guid: b7bd9e13794ef9a49a830141242a13eb, type: 3}
    - {fileID: 21300044, guid: b7bd9e13794ef9a49a830141242a13eb, type: 3}
    - {fileID: 21300046, guid: b7bd9e13794ef9a49a830141242a13eb, type: 3}
    - {fileID: 21300048, guid: b7bd9e13794ef9a49a830141242a13eb, type: 3}
    - {fileID: 21300050, guid: b7bd9e13794ef9a49a830141242a13eb, type: 3}
    - {fileID: 21300052, guid: b7bd9e13794ef9a49a830141242a13eb, type: 3}
    - {fileID: 21300054, guid: b7bd9e13794ef9a49a830141242a13eb, type: 3}
    - {fileID: 21300056, guid: b7bd9e13794ef9a49a830141242a13eb, type: 3}
    - {fileID: 21300058, guid: b7bd9e13794ef9a49a830141242a13eb, type: 3}
    - {fileID: 21300060, guid: b7bd9e13794ef9a49a830141242a13eb, type: 3}
    - {fileID: 21300062, guid: b7bd9e13794ef9a49a830141242a13eb, type: 3}
    - {fileID: 21300064, guid: b7bd9e13794ef9a49a830141242a13eb, type: 3}
    - {fileID: 21300066, guid: b7bd9e13794ef9a49a830141242a13eb, type: 3}
    - {fileID: 21300068, guid: b7bd9e13794ef9a49a830141242a13eb, type: 3}
    - {fileID: 21300070, guid: b7bd9e13794ef9a49a830141242a13eb, type: 3}
    - {fileID: 21300072, guid: b7bd9e13794ef9a49a830141242a13eb, type: 3}
    - {fileID: 21300074, guid: b7bd9e13794ef9a49a830141242a13eb, type: 3}
    - {fileID: 21300076, guid: b7bd9e13794ef9a49a830141242a13eb, type: 3}
    - {fileID: 21300078, guid: b7bd9e13794ef9a49a830141242a13eb, type: 3}
    - {fileID: 21300080, guid: b7bd9e13794ef9a49a830141242a13eb, type: 3}
    - {fileID: 21300082, guid: b7bd9e13794ef9a49a830141242a13eb, type: 3}
    - {fileID: 21300084, guid: b7bd9e13794ef9a49a830141242a13eb, type: 3}
    - {fileID: 21300086, guid: b7bd9e13794ef9a49a830141242a13eb, type: 3}
    - {fileID: 21300088, guid: b7bd9e13794ef9a49a830141242a13eb, type: 3}
    - {fileID: 21300090, guid: b7bd9e13794ef9a49a830141242a13eb, type: 3}
    - {fileID: 21300092, guid: b7bd9e13794ef9a49a830141242a13eb, type: 3}
    - {fileID: 21300094, guid: b7bd9e13794ef9a49a830141242a13eb, type: 3}
    - {fileID: 21300096, guid: b7bd9e13794ef9a49a830141242a13eb, type: 3}
  m_AnimationClipSettings:
    serializedVersion: 2
    m_AdditiveReferencePoseClip: {fileID: 0}
    m_AdditiveReferencePoseTime: 0
    m_StartTime: 0
    m_StopTime: 2.1556585
    m_OrientationOffsetY: 0
    m_Level: 0
    m_CycleOffset: 0
    m_HasAdditiveReferencePose: 0
    m_LoopTime: 0
    m_LoopBlend: 0
    m_LoopBlendOrientation: 0
    m_LoopBlendPositionY: 0
    m_LoopBlendPositionXZ: 0
    m_KeepOriginalOrientation: 0
    m_KeepOriginalPositionY: 1
    m_KeepOriginalPositionXZ: 0
    m_HeightFromFeet: 0
    m_Mirror: 0
  m_EditorCurves: []
  m_EulerEditorCurves: []
  m_HasGenericRootTransform: 0
  m_HasMotionFloatCurves: 0
  m_Events: []
