%YAML 1.1
%TAG !u! tag:unity3d.com,2011:
--- !u!74 &7400000
AnimationClip:
  m_ObjectHideFlags: 0
  m_CorrespondingSourceObject: {fileID: 0}
  m_PrefabInternal: {fileID: 0}
  m_Name: Running_4_animation
  serializedVersion: 6
  m_Legacy: 0
  m_Compressed: 0
  m_UseHighQualityCurve: 1
  m_RotationCurves: []
  m_CompressedRotationCurves: []
  m_EulerCurves: []
  m_PositionCurves: []
  m_ScaleCurves: []
  m_FloatCurves: []
  m_PPtrCurves:
  - curve:
    - time: 0
      value: {fileID: 21300000, guid: 2c5ea8afb4553224cae24ba76be8186a, type: 3}
    - time: 0.014285715
      value: {fileID: 21300002, guid: 2c5ea8afb4553224cae24ba76be8186a, type: 3}
    - time: 0.02857143
      value: {fileID: 21300004, guid: 2c5ea8afb4553224cae24ba76be8186a, type: 3}
    - time: 0.042857148
      value: {fileID: 21300006, guid: 2c5ea8afb4553224cae24ba76be8186a, type: 3}
    - time: 0.05714286
      value: {fileID: 21300008, guid: 2c5ea8afb4553224cae24ba76be8186a, type: 3}
    - time: 0.071428575
      value: {fileID: 21300010, guid: 2c5ea8afb4553224cae24ba76be8186a, type: 3}
    - time: 0.085714296
      value: {fileID: 21300012, guid: 2c5ea8afb4553224cae24ba76be8186a, type: 3}
    - time: 0.10000001
      value: {fileID: 21300014, guid: 2c5ea8afb4553224cae24ba76be8186a, type: 3}
    - time: 0.11428572
      value: {fileID: 21300016, guid: 2c5ea8afb4553224cae24ba76be8186a, type: 3}
    - time: 0.12857144
      value: {fileID: 21300018, guid: 2c5ea8afb4553224cae24ba76be8186a, type: 3}
    - time: 0.14285715
      value: {fileID: 21300020, guid: 2c5ea8afb4553224cae24ba76be8186a, type: 3}
    - time: 0.15714286
      value: {fileID: 21300022, guid: 2c5ea8afb4553224cae24ba76be8186a, type: 3}
    - time: 0.17142859
      value: {fileID: 21300024, guid: 2c5ea8afb4553224cae24ba76be8186a, type: 3}
    - time: 0.1857143
      value: {fileID: 21300026, guid: 2c5ea8afb4553224cae24ba76be8186a, type: 3}
    - time: 0.20000002
      value: {fileID: 21300028, guid: 2c5ea8afb4553224cae24ba76be8186a, type: 3}
    - time: 0.21428573
      value: {fileID: 21300030, guid: 2c5ea8afb4553224cae24ba76be8186a, type: 3}
    - time: 0.22857144
      value: {fileID: 21300032, guid: 2c5ea8afb4553224cae24ba76be8186a, type: 3}
    - time: 0.24285716
      value: {fileID: 21300034, guid: 2c5ea8afb4553224cae24ba76be8186a, type: 3}
    - time: 0.25714287
      value: {fileID: 21300036, guid: 2c5ea8afb4553224cae24ba76be8186a, type: 3}
    - time: 0.27142859
      value: {fileID: 21300038, guid: 2c5ea8afb4553224cae24ba76be8186a, type: 3}
    - time: 0.2857143
      value: {fileID: 21300040, guid: 2c5ea8afb4553224cae24ba76be8186a, type: 3}
    - time: 0.3
      value: {fileID: 21300042, guid: 2c5ea8afb4553224cae24ba76be8186a, type: 3}
    - time: 0.31428573
      value: {fileID: 21300044, guid: 2c5ea8afb4553224cae24ba76be8186a, type: 3}
    - time: 0.32857144
      value: {fileID: 21300046, guid: 2c5ea8afb4553224cae24ba76be8186a, type: 3}
    - time: 0.34285718
      value: {fileID: 21300048, guid: 2c5ea8afb4553224cae24ba76be8186a, type: 3}
    - time: 0.3571429
      value: {fileID: 21300050, guid: 2c5ea8afb4553224cae24ba76be8186a, type: 3}
    - time: 0.3714286
      value: {fileID: 21300052, guid: 2c5ea8afb4553224cae24ba76be8186a, type: 3}
    - time: 0.38571432
      value: {fileID: 21300054, guid: 2c5ea8afb4553224cae24ba76be8186a, type: 3}
    - time: 0.40000004
      value: {fileID: 21300056, guid: 2c5ea8afb4553224cae24ba76be8186a, type: 3}
    - time: 0.41428575
      value: {fileID: 21300058, guid: 2c5ea8afb4553224cae24ba76be8186a, type: 3}
    - time: 0.42857146
      value: {fileID: 21300060, guid: 2c5ea8afb4553224cae24ba76be8186a, type: 3}
    - time: 0.44285718
      value: {fileID: 21300062, guid: 2c5ea8afb4553224cae24ba76be8186a, type: 3}
    - time: 0.4571429
      value: {fileID: 21300064, guid: 2c5ea8afb4553224cae24ba76be8186a, type: 3}
    - time: 0.4714286
      value: {fileID: 21300066, guid: 2c5ea8afb4553224cae24ba76be8186a, type: 3}
    - time: 0.48571432
      value: {fileID: 21300068, guid: 2c5ea8afb4553224cae24ba76be8186a, type: 3}
    - time: 0.50000006
      value: {fileID: 21300070, guid: 2c5ea8afb4553224cae24ba76be8186a, type: 3}
    - time: 0.51428574
      value: {fileID: 21300072, guid: 2c5ea8afb4553224cae24ba76be8186a, type: 3}
    - time: 0.5285715
      value: {fileID: 21300074, guid: 2c5ea8afb4553224cae24ba76be8186a, type: 3}
    - time: 0.54285717
      value: {fileID: 21300076, guid: 2c5ea8afb4553224cae24ba76be8186a, type: 3}
    - time: 0.5571429
      value: {fileID: 21300078, guid: 2c5ea8afb4553224cae24ba76be8186a, type: 3}
    - time: 0.5714286
      value: {fileID: 21300080, guid: 2c5ea8afb4553224cae24ba76be8186a, type: 3}
    - time: 0.58571434
      value: {fileID: 21300082, guid: 2c5ea8afb4553224cae24ba76be8186a, type: 3}
    - time: 0.6
      value: {fileID: 21300084, guid: 2c5ea8afb4553224cae24ba76be8186a, type: 3}
    - time: 0.61428577
      value: {fileID: 21300086, guid: 2c5ea8afb4553224cae24ba76be8186a, type: 3}
    - time: 0.62857145
      value: {fileID: 21300088, guid: 2c5ea8afb4553224cae24ba76be8186a, type: 3}
    - time: 0.6428572
      value: {fileID: 21300090, guid: 2c5ea8afb4553224cae24ba76be8186a, type: 3}
    - time: 0.6571429
      value: {fileID: 21300092, guid: 2c5ea8afb4553224cae24ba76be8186a, type: 3}
    - time: 0.6714286
      value: {fileID: 21300094, guid: 2c5ea8afb4553224cae24ba76be8186a, type: 3}
    - time: 0.68571436
      value: {fileID: 21300096, guid: 2c5ea8afb4553224cae24ba76be8186a, type: 3}
    attribute: m_Sprite
    path: 
    classID: 212
    script: {fileID: 0}
  m_SampleRate: 69
  m_WrapMode: 0
  m_Bounds:
    m_Center: {x: 0, y: 0, z: 0}
    m_Extent: {x: 0, y: 0, z: 0}
  m_ClipBindingConstant:
    genericBindings:
    - serializedVersion: 2
      path: 0
      attribute: 0
      script: {fileID: 0}
      typeID: 212
      customType: 23
      isPPtrCurve: 1
    pptrCurveMapping:
    - {fileID: 21300000, guid: 2c5ea8afb4553224cae24ba76be8186a, type: 3}
    - {fileID: 21300002, guid: 2c5ea8afb4553224cae24ba76be8186a, type: 3}
    - {fileID: 21300004, guid: 2c5ea8afb4553224cae24ba76be8186a, type: 3}
    - {fileID: 21300006, guid: 2c5ea8afb4553224cae24ba76be8186a, type: 3}
    - {fileID: 21300008, guid: 2c5ea8afb4553224cae24ba76be8186a, type: 3}
    - {fileID: 21300010, guid: 2c5ea8afb4553224cae24ba76be8186a, type: 3}
    - {fileID: 21300012, guid: 2c5ea8afb4553224cae24ba76be8186a, type: 3}
    - {fileID: 21300014, guid: 2c5ea8afb4553224cae24ba76be8186a, type: 3}
    - {fileID: 21300016, guid: 2c5ea8afb4553224cae24ba76be8186a, type: 3}
    - {fileID: 21300018, guid: 2c5ea8afb4553224cae24ba76be8186a, type: 3}
    - {fileID: 21300020, guid: 2c5ea8afb4553224cae24ba76be8186a, type: 3}
    - {fileID: 21300022, guid: 2c5ea8afb4553224cae24ba76be8186a, type: 3}
    - {fileID: 21300024, guid: 2c5ea8afb4553224cae24ba76be8186a, type: 3}
    - {fileID: 21300026, guid: 2c5ea8afb4553224cae24ba76be8186a, type: 3}
    - {fileID: 21300028, guid: 2c5ea8afb4553224cae24ba76be8186a, type: 3}
    - {fileID: 21300030, guid: 2c5ea8afb4553224cae24ba76be8186a, type: 3}
    - {fileID: 21300032, guid: 2c5ea8afb4553224cae24ba76be8186a, type: 3}
    - {fileID: 21300034, guid: 2c5ea8afb4553224cae24ba76be8186a, type: 3}
    - {fileID: 21300036, guid: 2c5ea8afb4553224cae24ba76be8186a, type: 3}
    - {fileID: 21300038, guid: 2c5ea8afb4553224cae24ba76be8186a, type: 3}
    - {fileID: 21300040, guid: 2c5ea8afb4553224cae24ba76be8186a, type: 3}
    - {fileID: 21300042, guid: 2c5ea8afb4553224cae24ba76be8186a, type: 3}
    - {fileID: 21300044, guid: 2c5ea8afb4553224cae24ba76be8186a, type: 3}
    - {fileID: 21300046, guid: 2c5ea8afb4553224cae24ba76be8186a, type: 3}
    - {fileID: 21300048, guid: 2c5ea8afb4553224cae24ba76be8186a, type: 3}
    - {fileID: 21300050, guid: 2c5ea8afb4553224cae24ba76be8186a, type: 3}
    - {fileID: 21300052, guid: 2c5ea8afb4553224cae24ba76be8186a, type: 3}
    - {fileID: 21300054, guid: 2c5ea8afb4553224cae24ba76be8186a, type: 3}
    - {fileID: 21300056, guid: 2c5ea8afb4553224cae24ba76be8186a, type: 3}
    - {fileID: 21300058, guid: 2c5ea8afb4553224cae24ba76be8186a, type: 3}
    - {fileID: 21300060, guid: 2c5ea8afb4553224cae24ba76be8186a, type: 3}
    - {fileID: 21300062, guid: 2c5ea8afb4553224cae24ba76be8186a, type: 3}
    - {fileID: 21300064, guid: 2c5ea8afb4553224cae24ba76be8186a, type: 3}
    - {fileID: 21300066, guid: 2c5ea8afb4553224cae24ba76be8186a, type: 3}
    - {fileID: 21300068, guid: 2c5ea8afb4553224cae24ba76be8186a, type: 3}
    - {fileID: 21300070, guid: 2c5ea8afb4553224cae24ba76be8186a, type: 3}
    - {fileID: 21300072, guid: 2c5ea8afb4553224cae24ba76be8186a, type: 3}
    - {fileID: 21300074, guid: 2c5ea8afb4553224cae24ba76be8186a, type: 3}
    - {fileID: 21300076, guid: 2c5ea8afb4553224cae24ba76be8186a, type: 3}
    - {fileID: 21300078, guid: 2c5ea8afb4553224cae24ba76be8186a, type: 3}
    - {fileID: 21300080, guid: 2c5ea8afb4553224cae24ba76be8186a, type: 3}
    - {fileID: 21300082, guid: 2c5ea8afb4553224cae24ba76be8186a, type: 3}
    - {fileID: 21300084, guid: 2c5ea8afb4553224cae24ba76be8186a, type: 3}
    - {fileID: 21300086, guid: 2c5ea8afb4553224cae24ba76be8186a, type: 3}
    - {fileID: 21300088, guid: 2c5ea8afb4553224cae24ba76be8186a, type: 3}
    - {fileID: 21300090, guid: 2c5ea8afb4553224cae24ba76be8186a, type: 3}
    - {fileID: 21300092, guid: 2c5ea8afb4553224cae24ba76be8186a, type: 3}
    - {fileID: 21300094, guid: 2c5ea8afb4553224cae24ba76be8186a, type: 3}
    - {fileID: 21300096, guid: 2c5ea8afb4553224cae24ba76be8186a, type: 3}
  m_AnimationClipSettings:
    serializedVersion: 2
    m_AdditiveReferencePoseClip: {fileID: 0}
    m_AdditiveReferencePoseTime: 0
    m_StartTime: 0
    m_StopTime: 0.7002071
    m_OrientationOffsetY: 0
    m_Level: 0
    m_CycleOffset: 0
    m_HasAdditiveReferencePose: 0
    m_LoopTime: 0
    m_LoopBlend: 0
    m_LoopBlendOrientation: 0
    m_LoopBlendPositionY: 0
    m_LoopBlendPositionXZ: 0
    m_KeepOriginalOrientation: 0
    m_KeepOriginalPositionY: 1
    m_KeepOriginalPositionXZ: 0
    m_HeightFromFeet: 0
    m_Mirror: 0
  m_EditorCurves: []
  m_EulerEditorCurves: []
  m_HasGenericRootTransform: 0
  m_HasMotionFloatCurves: 0
  m_GenerateMotionCurves: 0
  m_Events: []
